<?xml version="1.0" encoding="UTF-8"?>
<svg width="377px" height="378px" viewBox="0 0 377 378" version="1.1" xmlns="http://www.w3.org/2000/svg" xmlns:xlink="http://www.w3.org/1999/xlink">
    <!-- Generator: Sketch 62 (91390) - https://sketch.com -->
    <title>Stroke 238</title>
    <desc>Created with Sketch.</desc>
    <g id="Page-1" stroke="none" stroke-width="1" fill="none" fill-rule="evenodd">
        <path d="M1,195.444667 L181.551586,376 M7.30674009,188.75632 L105.041688,272.418731 L188.68434,369.669099 M13.6134802,182.067973 L118.539253,258.847794 L195.817094,363.339199 M19.919219,175.380627 L132.036818,245.276858 L202.949848,357.0093 M26.2259591,168.69228 L145.534383,231.705921 L210.082601,350.678399 M32.5326992,162.003933 L159.03295,218.134984 L217.215355,344.348499 M38.8394393,155.315586 L172.530515,204.564048 L224.348109,338.017598 M45.1461794,148.62824 L186.029081,190.993111 L231.480863,331.687698 M51.4529195,141.939893 L199.526646,177.422175 L238.613617,325.357799 M57.7586584,135.251546 L213.024212,163.851238 L245.746371,319.026898 M64.0653984,128.563199 L226.522778,150.280302 L252.879124,312.696998 M70.3721385,121.875853 L240.020343,136.709365 L260.011878,306.366097 M76.6788786,115.187506 L253.517908,123.138429 L267.145633,300.036197 M82.9846175,108.499159 L267.016475,109.567492 L274.278387,293.706297 M89.2913576,101.810812 L280.51404,95.9965557 L281.411141,287.375396 M95.5980977,95.1234661 L294.011605,82.4256192 L288.543895,281.045497 M101.904838,88.435119 L307.510172,68.8546826 L295.676649,274.715597 M108.211578,81.746772 L321.007737,55.2837461 L302.809402,268.384696 M114.517317,75.0584249 L334.506303,41.7128096 L309.942156,262.054796 M120.824057,68.3700779 L348.003868,28.1418731 L317.07491,255.723895 M127.130797,61.682732 L361.501434,14.5719378 L324.207664,249.393996 M133.437537,54.994385 L375,1 L331.340418,243.064096" id="Stroke-238" stroke="#8FC7D6" stroke-width="2" transform="translate(188.000000, 188.500000) scale(1, -1) translate(-188.000000, -188.500000) "></path>
    </g>
</svg>