<?xml version="1.0" encoding="UTF-8"?>
<svg width="300px" height="300px" viewBox="0 0 300 300" version="1.1" xmlns="http://www.w3.org/2000/svg" xmlns:xlink="http://www.w3.org/1999/xlink">
    <title>work-hero-simbol</title>
    <defs>
        <polygon id="path-1" points="0.232258065 0.424137931 299.803325 0.424137931 299.803325 299.805172 0.232258065 299.805172"></polygon>
    </defs>
    <g id="work-hero-simbol" stroke="none" stroke-width="1" fill="none" fill-rule="evenodd">
        <g id="Group-8" transform="translate(150.000000, 150.000000) scale(-1, 1) translate(-150.000000, -150.000000) ">
            <g id="Group-80">
                <mask id="mask-2" fill="white">
                    <use xlink:href="#path-1"></use>
                </mask>
                <g id="Clip-79"></g>
                <path d="M-158.527537,139.864138 L152.581817,450.777931 M-147.660361,128.346897 L20.7472226,272.412414 L164.872301,439.876207 M-136.793185,116.829655 L44.0049456,249.043448 L177.162786,428.976207 M-125.927735,105.314138 L67.2626687,225.674483 L189.45327,418.076207 M-115.060559,93.7968966 L90.5203918,202.305517 L201.743754,407.174483 M-104.193383,82.2796552 L113.77984,178.936552 L214.034238,396.274483 M-93.3262072,70.7624138 L137.037563,155.567586 L226.324723,385.372759 M-82.4590314,59.2468966 L160.297011,132.198621 L238.615207,374.472759 M-71.5918555,47.7296552 L183.554734,108.829655 L250.905691,363.572759 M-60.7264049,36.2124138 L206.812458,85.4606897 L263.196176,352.671034 M-49.859229,24.6951724 L230.071906,62.0917241 L275.48666,341.771034 M-38.9920532,13.1796552 L253.329629,38.7227586 L287.777144,330.86931 M-28.1248773,1.66241379 L276.587352,15.3537931 L300.069354,319.96931 M-17.2594267,-9.85482759 L299.8468,-8.01517241 L312.359838,309.06931 M-6.39225088,-21.372069 L323.104523,-31.3841379 L324.650323,298.167586 M4.47492497,-32.8875862 L346.362246,-54.7531034 L336.940807,287.267586 M15.3421008,-44.4048276 L369.621695,-78.122069 L349.231291,276.367586 M26.2092767,-55.922069 L392.879418,-101.491034 L361.521776,265.465862 M37.0747273,-67.4393103 L416.138866,-124.86 L373.81226,254.565862 M47.9419031,-78.9565517 L439.396589,-148.228966 L386.102744,243.664138 M58.809079,-90.472069 L462.654312,-171.596207 L398.393229,232.764138 M69.6762548,-101.98931 L485.91376,-194.966897 L410.683713,221.864138" id="Stroke-78" stroke="rgba(123,131,97,1)" stroke-width="2" mask="url(#mask-2)"></path>
            </g>
            <polygon id="Stroke-81" stroke="rgba(123,131,97,1)" stroke-width="2" points="300 300 0 300 0 0.835654596 300 0.835654596"></polygon>
        </g>
    </g>
</svg>