<?xml version="1.0" encoding="UTF-8" standalone="no"?>
<svg
   width="40"
   height="40"
   fill="#0B4C76"
   className="bi bi-check2-square"
   viewBox="0 0 16 16"
   version="1.1"
   id="svg20"
   sodipodi:docname="Dont's.svg"
   inkscape:version="1.1 (c68e22c387, 2021-05-23)"
   xmlns:inkscape="http://www.inkscape.org/namespaces/inkscape"
   xmlns:sodipodi="http://sodipodi.sourceforge.net/DTD/sodipodi-0.dtd"
   xmlns="http://www.w3.org/2000/svg"
   xmlns:svg="http://www.w3.org/2000/svg">
  <defs
     id="defs24" />
  <sodipodi:namedview
     id="namedview22"
     pagecolor="#ffffff"
     bordercolor="#666666"
     borderopacity="1.0"
     inkscape:pageshadow="2"
     inkscape:pageopacity="0.0"
     inkscape:pagecheckerboard="0"
     showgrid="false"
     inkscape:zoom="12.425"
     inkscape:cx="20"
     inkscape:cy="20"
     inkscape:window-width="1366"
     inkscape:window-height="705"
     inkscape:window-x="-8"
     inkscape:window-y="-8"
     inkscape:window-maximized="1"
     inkscape:current-layer="svg20" />
  <path
     d="M3 14.5A1.5 1.5 0 0 1 1.5 13V3A1.5 1.5 0 0 1 3 1.5h8a.5.5 0 0 1 0 1H3a.5.5 0 0 0-.5.5v10a.5.5 0 0 0 .5.5h10a.5.5 0 0 0 .5-.5V8a.5.5 0 0 1 1 0v5a1.5 1.5 0 0 1-1.5 1.5H3z"
     id="path16" />
  <path
     d="M 13.421467,3.4907379 C 13.896326,3.014385 13.184039,2.2998553 12.70918,2.7762082 L 6.0229299,9.4845121 3.0370237,12.336411 c -0.4424702,0.660801 0.1450244,1.049293 0.7451781,0.747021 5.1081213,-4.9366135 2.3752886,-2.305853 9.6392652,-9.5926941 z"
     id="path18"
     sodipodi:nodetypes="cccccc"
     style="stroke-width:1.00763" />
  <path
     d="m 12.388814,13.019502 c 0.474985,0.468996 1.178478,-0.243482 0.703493,-0.712478 L 6.4032703,5.7033338 3.5586587,2.7533924 C 2.9011192,2.4143287 2.5198903,2.904138 2.8231794,3.4987664 7.7467973,8.5449977 5.1228954,5.8452113 12.388814,13.019502 Z"
     id="path18-9"
     sodipodi:nodetypes="cccccc" />
</svg>
