<?xml version="1.0" encoding="UTF-8" standalone="no"?>
<!-- Created with Inkscape (http://www.inkscape.org/) -->

<svg
   xmlns:dc="http://purl.org/dc/elements/1.1/"
   xmlns:cc="http://creativecommons.org/ns#"
   xmlns:rdf="http://www.w3.org/1999/02/22-rdf-syntax-ns#"
   xmlns:svg="http://www.w3.org/2000/svg"
   xmlns="http://www.w3.org/2000/svg"
   xmlns:sodipodi="http://sodipodi.sourceforge.net/DTD/sodipodi-0.dtd"
   xmlns:inkscape="http://www.inkscape.org/namespaces/inkscape"
   width="197.55556mm"
   height="188.34987mm"
   viewBox="0 0 700.00001 667.38142"
   id="svg2"
   version="1.1"
   inkscape:version="0.91 r13725"
   sodipodi:docname="3DStarYellow.svg">
  <defs
     id="defs4">
    <filter
       inkscape:menu-tooltip="Bright metallic effect for any color"
       inkscape:menu="Bevels"
       inkscape:label="Blur"
       style="color-interpolation-filters:sRGB"
       id="filter4139"
       height="1"
       width="1"
       y="0"
       x="0">
      <feGaussianBlur
         result="result6"
         stdDeviation="8"
         in="SourceGraphic"
         id="feGaussianBlur4141" />
      <feComposite
         in2="SourceGraphic"
         in="result6"
         operator="xor"
         result="result10"
         id="feComposite4143" />
      <feGaussianBlur
         result="result2"
         stdDeviation="8"
         id="feGaussianBlur4145" />
      <feComposite
         in2="SourceGraphic"
         operator="atop"
         in="result10"
         result="result91"
         id="feComposite4147" />
      <feComposite
         result="result4"
         in="result2"
         operator="xor"
         in2="result91"
         id="feComposite4149" />
      <feGaussianBlur
         in="result4"
         result="result3"
         stdDeviation="4"
         id="feGaussianBlur4151" />
      <feSpecularLighting
         result="result5"
         specularExponent="5"
         specularConstant="1.10000002"
         surfaceScale="18"
         id="feSpecularLighting4153">
        <feDistantLight
           azimuth="235"
           elevation="55"
           id="feDistantLight4155" />
      </feSpecularLighting>
      <feComposite
         in="result3"
         k3="1.1"
         k2="0.5"
         operator="arithmetic"
         result="result7"
         in2="result5"
         k1="0.5"
         id="feComposite4157"
         k4="0" />
      <feComposite
         in="result7"
         operator="atop"
         in2="SourceGraphic"
         result="fbSourceGraphic"
         id="feComposite4159" />
      <feColorMatrix
         result="fbSourceGraphicAlpha"
         in="fbSourceGraphic"
         values="0 0 0 -1 0 0 0 0 -1 0 0 0 0 -1 0 0 0 0 1 0"
         id="feColorMatrix4473" />
      <feGaussianBlur
         id="feGaussianBlur4475"
         stdDeviation="4 4"
         result="blur"
         in="fbSourceGraphic" />
      <feColorMatrix
         id="feColorMatrix4477"
         values="1 0 0 0 0 0 1 0 0 0 0 0 1 0 0 0 0 0 50 0 "
         result="colormatrix" />
      <feComposite
         id="feComposite4479"
         in2="fbSourceGraphic"
         in="colormatrix"
         operator="in" />
    </filter>
  </defs>
  <sodipodi:namedview
     id="base"
     pagecolor="#ffffff"
     bordercolor="#666666"
     borderopacity="1.0"
     inkscape:pageopacity="0.0"
     inkscape:pageshadow="2"
     inkscape:zoom="1.0039237"
     inkscape:cx="350"
     inkscape:cy="333.69071"
     inkscape:document-units="px"
     inkscape:current-layer="layer1"
     showgrid="false"
     inkscape:window-width="1600"
     inkscape:window-height="837"
     inkscape:window-x="-8"
     inkscape:window-y="-8"
     inkscape:window-maximized="1"
     fit-margin-top="0"
     fit-margin-left="0"
     fit-margin-right="0"
     fit-margin-bottom="0" />
  <metadata
     id="metadata7">
    <rdf:RDF>
      <cc:Work
         rdf:about="">
        <dc:format>image/svg+xml</dc:format>
        <dc:type
           rdf:resource="http://purl.org/dc/dcmitype/StillImage" />
        <dc:title></dc:title>
      </cc:Work>
    </rdf:RDF>
  </metadata>
  <g
     inkscape:label="Layer 1"
     inkscape:groupmode="layer"
     id="layer1"
     transform="translate(-56.290078,109.14425)">
    <g
       id="g4483">
      <path
         inkscape:transform-center-x="-1.3746201e-005"
         transform="matrix(1.6055368,0,0,1.6055368,-34.085709,-338.03311)"
         inkscape:connector-curvature="0"
         id="path4136"
         d="m 274.28571,142.5622 c -28.3573,0 -37.55888,128.79241 -60.50042,145.46042 -22.94154,16.668 -148.273836,-14.37984 -157.036724,12.58956 -8.762887,26.9694 110.882534,75.51966 119.645424,102.48906 8.76289,26.96939 -59.49518,136.57318 -36.55364,153.24119 22.94155,16.668 106.08806,-82.1187 134.44536,-82.1187 28.3573,0 111.5038,98.78671 134.44534,82.1187 22.94154,-16.668 -45.31651,-126.2718 -36.55363,-153.2412 8.76289,-26.9694 128.40832,-75.51965 119.64543,-102.48904 -8.76289,-26.9694 -134.0952,4.07843 -157.03674,-12.58958 -22.94154,-16.668 -32.1431,-145.46041 -60.5004,-145.46041 z"
         inkscape:transform-center-y="35.879577"
         style="opacity:1;fill:#fff;fill-opacity:1;stroke:none;stroke-width:1;stroke-miterlimit:4;stroke-dasharray:none;stroke-opacity:1;filter:url(#filter4139)" />
      <path
         style="opacity:1;fill:#ffc400;fill-opacity:0.58015269;stroke:none;stroke-width:1;stroke-miterlimit:4;stroke-dasharray:none;stroke-opacity:1"
         inkscape:transform-center-y="35.879577"
         d="m 274.28571,142.5622 c -28.3573,0 -37.55888,128.79241 -60.50042,145.46042 -22.94154,16.668 -148.273836,-14.37984 -157.036724,12.58956 -8.762887,26.9694 110.882534,75.51966 119.645424,102.48906 8.76289,26.96939 -59.49518,136.57318 -36.55364,153.24119 22.94155,16.668 106.08806,-82.1187 134.44536,-82.1187 28.3573,0 111.5038,98.78671 134.44534,82.1187 22.94154,-16.668 -45.31651,-126.2718 -36.55363,-153.2412 8.76289,-26.9694 128.40832,-75.51965 119.64543,-102.48904 -8.76289,-26.9694 -134.0952,4.07843 -157.03674,-12.58958 -22.94154,-16.668 -32.1431,-145.46041 -60.5004,-145.46041 z"
         id="path4481"
         inkscape:connector-curvature="0"
         transform="matrix(1.6055368,0,0,1.6055368,-34.085709,-338.03311)"
         inkscape:transform-center-x="-1.3746201e-005" />
    </g>
  </g>
</svg>
