<?xml version="1.0" encoding="utf-8"?>
<!-- Generator: Adobe Illustrator 25.0.0, SVG Export Plug-In . SVG Version: 6.00 Build 0)  -->
<svg version="1.1" id="Layer_1" xmlns="http://www.w3.org/2000/svg" xmlns:xlink="http://www.w3.org/1999/xlink" x="0px" y="0px"
	 viewBox="0 0 40 40" style="enable-background:new 0 0 40 40;" xml:space="preserve">
<path d="M29.7,23.9c-3.2,0-5.8,2.6-6.1,6h-7.5c-0.2-1.3-0.5-2.6-1.4-3.5l11.1-12.1c1,0.9,2.4,1.5,3.9,1.5c3.4,0,6.1-3,6.1-6.7
	s-2.7-6.5-6.1-6.5c-3.2,0-5.8,2.6-6.1,6h-7.5c-0.2-3.4-2.7-6-6-6C6.7,2.5,4,5.5,4,9.2s2.7,6.7,6.1,6.7c3.2,0,5.8-2.6,6.1-6h7.5
	c0.2,1.3,0.5,2.6,1.4,3.5L14,25.6c-1-0.9-2.4-1.5-3.9-1.5c-3.4,0-6.1,3-6.1,6.7s2.7,6.7,6.1,6.7c3.2,0,5.8-2.6,6.1-6h7.5
	c0.3,3.4,2.9,6,6.1,6c3.4,0,6.1-3,6.1-6.7S33.1,23.9,29.7,23.9z M10.1,14.6c-2.7,0-4.9-2.4-4.9-5.4s2.2-5.4,4.9-5.4s4.9,2.4,4.9,5.4
	S12.9,14.6,10.1,14.6z M24.9,9.2c0-3,2.2-5.4,4.9-5.4c2.6,0,4.8,2.4,4.8,5.4s-2.2,5.4-4.9,5.4C27.1,14.6,24.9,12.2,24.9,9.2z
	 M10.1,36c-2.7,0-4.9-2.4-4.9-5.4s2.2-5.4,4.9-5.4s4.9,2.4,4.9,5.4S12.9,36,10.1,36z"/>
</svg>
