{
    "data" : [
        {
            "block" : "Privacy of our website visitors is important to us. Name, email address, age, home address, phone number, marital status, income, credit history, medical information, education, employment information, and social registration numbers are all different forms of personal information. We are focused on delivering exemplary service to our clients, customers, and members (\"you,\" \"your,\" or \"them\"). In order to provide excellent service, we may collect, utilize, and, on occasion, disclose your Personal Information. One of our biggest concerns includes keeping your personal information confidential and secure. Our Privacy policy informs you regarding the collection, use, and revealing of Personal Information when you visit our site. We take the privacy of our clients very seriously and thus will not share your personal information other than the below mentioned points if necessary:",
            "list" : []
        },
        {
            "block" : "Your Personal Information is required only to verify the following:",
            "list" : [
                "Your Identity",
                "To manage and open an account",
                "To ensure you receive high standard services",
                "To identify your preferences",
                "To deal with legal implications and reasons of certain nature",
                "To meet regulatory requirements"
            ]
        },
        {
            "block" : "For following purposes, we may obtain, use or share your Personal Information without your consent:",
            "list" : [
                "As and when required by Law",
                "In case of any urgency or emergency",
                "When the provided information is available from a Public Source",
                "For taking legally required actions"
            ]
        },
        {
            "block" : "We do not sell your personal Information; neither do we involve a third party until absolutely necessary. We only retain your Information till a reasonable period of time.",
            "list" : []
        }, 
        {
            "blockBold" : "Log data",
            "block" : "We may at times collect your log data or information that is sent from your browser when you visit our website. This log data may include your computer’s IP address, date and time of your visit, browser version and type, and other statistics.",
            "list" : []
        }, 
        {
            "blockBold" : "Cookies",
            "block" : "When you visit our website, we use cookies to record information such as your personal preferences, however, if you do not accept the cookies then you will not be able to use some of the features of our website. This might include just displaying you a popup once during your visit, or allowing you to login to certain of our features, such as forums.",
            "list" : []
        }, 
        {
            "blockBold" : "Third Party Services",
            "block" : "Third Party Companies that are involved with us may have your personal information only to perform their tasks and services on our behalf. They are bound to not disclose your personal information in any case.",
            "list" : []
        }, 
        {
            "blockBold" : "Communication",
            "block" : "For marketing and advertising purposes your Personal Information may be used by us, however, you may choose not to be a part of these services by following the unsubscribe link or instructions provided in any email sent by us.",
            "list" : []
        }, 
        {
            "blockBold" : "Security",
            "block" : "Securing your Personal Information is our top most priority, and we ensure the protection of your Personal Information, however, we cannot guarantee its absolute security and protection.",
            "list" : []
        }, 
        {
            "blockBold" : "Minor’s Privacy",
            "block" : "Our Service is not intended for anybody under the age of 18 (a \"Minor\"). We do not intentionally collect personally identifiable information from children under the age of thirteen. If you are a parent or guardian and are aware that your Minor has supplied us with Personal Information, please contact us. If we discover that we have obtained Personal Information from Minors without parental agreement, we take measures to delete such data from our servers.",
            "list" : []
        }, 
        {
            "blockBold" : "Other Sites Links",
            "block" : "Our Service may contain links to third-party websites that are not under our control. If you click on a third-party link, you will be sent to that third-website. party's We strongly recommend that you read the Privacy Policies of any website you visit. We have no control over, and bear no responsibility for, the content, privacy policies, or practises of third-party sites or services.",
            "list" : []
        }
    ]
}